BIOS 600 - Fall 2024 - Pipelines
…
flipper_length_mm
49.686
1.518
32.722
0

Augment data with model:

augment(penguins_fit$fit)

# A tibble: 342 × 9
   .rownames body_mass_g flipper_length_mm .fitted  .resid    .hat .sigma
   <chr>           <int>             <int>   <dbl>   <dbl>   <dbl>  <dbl>
 1 1                3750               181   3212.  538.   0.00881   394.
 2 2                3800               186   3461.  339.   0.00622   394.
 3 3                3250               195   3908. -658.   0.00344   393.
 4 5                3450               193   3808. -358.   0.00385   394.
 5 6                3650               190   3659.   -9.43 0.00469   395.
 6 7                3625               181   3212.  413.   0.00881   394.
 7 8                4675               195   3908.  767.   0.00344   393.
 8 9                3475               193   3808. -333.   0.00385   394.
 9 10               4250               190   3659.  591.   0.00469   394.
10 11               3300               186   3461. -161.   0.00622   395.
# ℹ 332 more rows
# ℹ 2 more variables: .cooksd <dbl>, .std.resid <dbl>
…
